<?xml version="1.0" encoding="UTF-8" ?>
<testsuite tests="3" failures="3" name="cz.cvut.fel.ts1.selenium.SeleniumTest" time="1.333" errors="0" skipped="0">
  <properties>
    <property name="idea.version" value="2021.3.2"/>
    <property name="java.runtime.name" value="Java(TM) SE Runtime Environment"/>
    <property name="java.vm.version" value="14.0.2+12-46"/>
    <property name="sun.boot.library.path" value="/usr/lib/jvm/jdk-14.0.2/lib"/>
    <property name="maven.multiModuleProjectDirectory" value="/import_all/users/heraskyr/TS1/ts01/selenium"/>
    <property name="java.vm.vendor" value="Oracle Corporation"/>
    <property name="java.vendor.url" value="https://java.oracle.com/"/>
    <property name="guice.disable.misplaced.annotation.check" value="true"/>
    <property name="path.separator" value=":"/>
    <property name="java.vm.name" value="Java HotSpot(TM) 64-Bit Server VM"/>
    <property name="user.country" value="US"/>
    <property name="sun.java.launcher" value="SUN_STANDARD"/>
    <property name="java.vm.specification.name" value="Java Virtual Machine Specification"/>
    <property name="user.dir" value="/import_all/users/heraskyr/TS1/ts01/selenium"/>
    <property name="java.vm.compressedOopsMode" value="Zero based"/>
    <property name="java.runtime.version" value="14.0.2+12-46"/>
    <property name="os.arch" value="amd64"/>
    <property name="java.io.tmpdir" value="/tmp"/>
    <property name="line.separator" value="
"/>
    <property name="java.vm.specification.vendor" value="Oracle Corporation"/>
    <property name="os.name" value="Linux"/>
    <property name="maven.ext.class.path" value="/opt/idea-IC-213.6777.52/plugins/maven/lib/maven-event-listener.jar"/>
    <property name="classworlds.conf" value="/opt/idea-IC-213.6777.52/plugins/maven/lib/maven3/bin/m2.conf"/>
    <property name="sun.jnu.encoding" value="UTF-8"/>
    <property name="java.library.path" value="/usr/java/packages/lib:/usr/lib64:/lib64:/lib:/usr/lib"/>
    <property name="maven.conf" value="/opt/idea-IC-213.6777.52/plugins/maven/lib/maven3/conf"/>
    <property name="jdk.debug" value="release"/>
    <property name="java.class.version" value="58.0"/>
    <property name="java.specification.name" value="Java Platform API Specification"/>
    <property name="sun.management.compiler" value="HotSpot 64-Bit Tiered Compilers"/>
    <property name="os.version" value="5.11.0-34-generic"/>
    <property name="user.home" value="/import/users/heraskyr"/>
    <property name="user.timezone" value="Europe/Prague"/>
    <property name="file.encoding" value="UTF-8"/>
    <property name="java.specification.version" value="14"/>
    <property name="user.name" value="heraskyr"/>
    <property name="java.class.path" value="/opt/idea-IC-213.6777.52/plugins/maven/lib/maven3/boot/plexus-classworlds-2.6.0.jar:/opt/idea-IC-213.6777.52/plugins/maven/lib/maven3/boot/plexus-classworlds.license"/>
    <property name="java.vm.specification.version" value="14"/>
    <property name="sun.arch.data.model" value="64"/>
    <property name="sun.java.command" value="org.codehaus.classworlds.Launcher -Didea.version=2021.3.2 install"/>
    <property name="java.home" value="/usr/lib/jvm/jdk-14.0.2"/>
    <property name="user.language" value="en"/>
    <property name="java.specification.vendor" value="Oracle Corporation"/>
    <property name="java.vm.info" value="mixed mode, sharing"/>
    <property name="java.version" value="14.0.2"/>
    <property name="securerandom.source" value="file:/dev/./urandom"/>
    <property name="java.vendor" value="Oracle Corporation"/>
    <property name="maven.home" value="/opt/idea-IC-213.6777.52/plugins/maven/lib/maven3"/>
    <property name="file.separator" value="/"/>
    <property name="java.version.date" value="2020-07-14"/>
    <property name="java.vendor.url.bug" value="https://bugreport.java.com/bugreport/"/>
    <property name="sun.io.unicode.encoding" value="UnicodeLittle"/>
    <property name="sun.cpu.endian" value="little"/>
  </properties>
  <testcase classname="cz.cvut.fel.ts1.selenium.SeleniumTest" name="cz.cvut.fel.ts1.selenium.SeleniumTest.test11" time="1.333">
    <failure message="&apos;org.openqa.selenium.remote.AbstractDriverOptions org.openqa.selenium.chrome.ChromeOptions.setAcceptInsecureCerts(boolean)&apos;" type="java.lang.NoSuchMethodError">java.lang.NoSuchMethodError: &apos;org.openqa.selenium.remote.AbstractDriverOptions org.openqa.selenium.chrome.ChromeOptions.setAcceptInsecureCerts(boolean)&apos;
	at net.serenitybdd.core.webdriver.driverproviders.ChromeDriverCapabilities.addRuntimeOptionsTo(ChromeDriverCapabilities.java:135)
	at net.serenitybdd.core.webdriver.driverproviders.ChromeDriverCapabilities.configuredOptions(ChromeDriverCapabilities.java:70)
	at net.serenitybdd.core.webdriver.driverproviders.ChromeDriverCapabilities.getCapabilities(ChromeDriverCapabilities.java:42)
	at net.serenitybdd.core.webdriver.driverproviders.ChromeDriverProvider.enhancedCapabilitiesConfiguredIn(ChromeDriverProvider.java:78)
	at net.serenitybdd.core.webdriver.driverproviders.ChromeDriverProvider.newInstance(ChromeDriverProvider.java:49)
	at net.thucydides.core.webdriver.WebDriverFactory.createWebDriver(WebDriverFactory.java:157)
	at net.thucydides.core.webdriver.WebDriverFactory.newWebdriverInstance(WebDriverFactory.java:136)
	at net.thucydides.core.webdriver.WebDriverFacade.newDriverInstance(WebDriverFacade.java:141)
	at net.thucydides.core.webdriver.WebDriverFacade.newProxyDriver(WebDriverFacade.java:132)
	at net.thucydides.core.webdriver.WebDriverFacade.getProxiedDriver(WebDriverFacade.java:102)
	at net.thucydides.core.webdriver.WebDriverFacade.get(WebDriverFacade.java:172)
	at net.serenitybdd.core.pages.PageObject.openPageAtUrl(PageObject.java:981)
	at net.serenitybdd.core.pages.PageObject.open(PageObject.java:879)
	at net.serenitybdd.core.pages.PageObject.open(PageObject.java:867)
	at cz.cvut.fel.ts1.selenium.SeleniumTest.test11(SeleniumTest.java:84)
</failure>
    <system-err>[main] INFO net.serenitybdd.core.webdriver.driverproviders.ChromeDriverProvider - Using automatically driver download
[main] INFO io.github.bonigarcia.wdm.WebDriverManager - Reading https://chromedriver.storage.googleapis.com/ to seek chromedriver
[main] INFO io.github.bonigarcia.wdm.Downloader - Downloading https://chromedriver.storage.googleapis.com/100.0.4896.60/chromedriver_linux64.zip
[main] INFO io.github.bonigarcia.wdm.Downloader - Extracting binary from compressed file chromedriver_linux64.zip
[main] INFO io.github.bonigarcia.wdm.WebDriverManager - Exporting webdriver.chrome.driver as /import/users/heraskyr/.m2/repository/webdriver/chromedriver/linux64/100.0.4896.60/chromedriver
</system-err>
  </testcase>
  <testcase classname="cz.cvut.fel.ts1.selenium.SeleniumTest" name="cz.cvut.fel.ts1.selenium.SeleniumTest.test1" time="0">
    <failure type="java.lang.NullPointerException">java.lang.NullPointerException
	at cz.cvut.fel.ts1.selenium.SeleniumTest.test1(SeleniumTest.java:33)
</failure>
  </testcase>
  <testcase classname="cz.cvut.fel.ts1.selenium.SeleniumTest" name="cz.cvut.fel.ts1.selenium.SeleniumTest.test_pruchodu" time="0">
    <failure type="java.lang.NullPointerException">java.lang.NullPointerException
	at cz.cvut.fel.ts1.selenium.SeleniumTest.test_pruchodu(SeleniumTest.java:45)
</failure>
  </testcase>
</testsuite>