
{
"bg":"",
"tiles":
	[
	{"bg":"tiles/tile1.png","type":"tile","collision":true, "canget":false,"coords":[{"x":23,"y":23},{"x":23,"y":138},{"x":23, "y":550}, {"x":23,"y":665},{"x":1500, "y":23},{"x":1500,"y":138},{"x":1500,"y":550},{"x":1500,"y":665}]},
	{"bg":"tiles/tile2.png","type":"tile","collision":true, "canget":false,"coords":[{"x":290,"y":23},{"x":290,"y":138},{"x":290, "y":550}, {"x":290,"y":665},{"x":1766, "y":23},{"x":1766,"y":138},{"x":1766,"y":550},{"x":1766,"y":665}]},
	{"bg":"tiles/tile4.png","type":"tile","collision":true, "canget":false,"coords":[{"x":678, "y":12}, {"x":791, "y":12},{"x":903,"y":12}, {"x":1016, "y":12}, {"x":1128, "y":12}]},
	{"bg":"tiles/tile3.png","type":"tile","collision":true, "canget":false,"coords":[{"x":678, "y":656}, {"x":791, "y":656},{"x":903,"y":656}, {"x":1016, "y":656}, {"x":1128, "y":656}]},
	{"bg":"items/key.png","type":"key","collision":false, "canget":true, "coords":[{"x":256, "y":256}]},
	{"bg":"tiles/door.png", "bg2":"tiles/door1.png", "type":"door", "collision" true, "canget":false, "coords":[{"x":1900,"y":300}]}
	{"bg":"items/magnet.png","type":"item", "collision":false,"canget":true,"coords":[{"x":430,"y":600}]}
	{"bg":"items/bat.png", "type":"weapon", "damage":7, "radius":30, "collision":false,"canget":true,"coords":[{"x":730,"y":600}]}
	]
	,
	"items":[{"bg":"items/key.png", "coords":[{"x":256, "y":256}]}],
	"entities":
	[
	{
	"type":"player", "x":100,"y":300,"damage":2,"radius":50,"health":20,"collectrad":20,
	"down1":"entities/down1.png", 
	"down2":"entities/down2.png",
	"up1":"entities/up1.png",
	"up2":"entities/up2.png",
	"left1":"entities/left1.png",
	"left2":"entities/left2.png",
	"right1":"entities/right1.png",
	"right2":"entities/right2.png",
	"items":[{"bg":"items/key.png", "type":"key", "coords":[{"x":256, "y":256}]}]}
	{
	"type":"policeman", "x":600,"y":400,"damage":4,"radius":30,"health":20
	"down1":"enemies/policeman_down1.png", 
	"down2":"enemies/policeman_down1.png",
	"up1":"enemies/policeman_down1.png",
	"up2":"enemies/policeman_down1.png",
	"left1":"enemies/policeman_down1.png",
	"left2":"enemies/policeman_down1.png",
	"right1":"enemies/policeman_down1.png",
	"right2":"enemies/policeman_down1.png",
	"items":[{"bg":"items/key.png", "type":"key", "coords":[{"x":256, "y":256}]}]
	}
	]	
	
}