/import_all/users/heraskyr/TS1/ts01/selenium/src/test/java/cz/cvut/fel/ts1/selenium/Result.java
/import_all/users/heraskyr/TS1/ts01/selenium/src/test/java/cz/cvut/fel/ts1/selenium/DirectionsPage.java
/import_all/users/heraskyr/TS1/ts01/selenium/src/test/java/cz/cvut/fel/ts1/selenium/SeleniumTest.java
