# ACTS Test Suite Generation: Tue Mar 22 19:14:06 CET 2022
#  '*' represents don't care value 
# Degree of interaction coverage: 2
# Number of parameters: 5
# Maximum number of values per parameter: 5
# Number of configurations: 20
Registrace,Jmeno,Destination,Narozeni,Sleva
false,jiri,Kharkiv,20.02.2021,Student
true,df///2655,Praha,20.02.2021,Duchodce
false,NULL,Praha,20.02.2021,Kupon
true,jiri,Kharkiv,20.02.2021,NULL
false,df///2655,Praha,20.02.2019,Student
true,NULL,Kharkiv,20.02.2019,Duchodce
true,jiri,Praha,20.02.2019,Kupon
false,df///2655,Kharkiv,20.02.2019,NULL
true,NULL,Praha,20.02.2005,Student
false,jiri,Kharkiv,20.02.2005,Duchodce
false,df///2655,Kharkiv,20.02.2005,Kupon
false,NULL,Praha,20.02.2005,NULL
true,jiri,Kharkiv,20.02.1990,Student
false,df///2655,Praha,20.02.1990,Duchodce
true,NULL,Kharkiv,20.02.1990,Kupon
true,df///2655,Kharkiv,20.02.1990,NULL
true,jiri,Kharkiv,20.02.1900,Student
false,df///2655,Praha,20.02.1900,Duchodce
true,NULL,Kharkiv,20.02.1900,Kupon
true,df///2655,Praha,20.02.1900,NULL
